{
  "project_info": {
    "project_number": "726145517622",
    "firebase_url": "https://fanartba.firebaseio.com",
    "project_id": "fanartba",
    "storage_bucket": "fanartba.appspot.com"
  },
  "client": [
    {
      "client_info": {
        "mobilesdk_app_id": "1:726145517622:android:45aacde154f234e0",
        "android_client_info": {
          "package_name": "com.almr.androdri98.diarie"
        }
      },
      "oauth_client": [
        {
          "client_id": "726145517622-bm85bgmp3p2n7l7sc6ugfnv7melmsbm2.apps.googleusercontent.com",
          "client_type": 3
        }
      ],
      "api_key": [
        {
          "current_key": "AIzaSyBPNIPePBzB0xNDEo6VwXa1Ir07jWSe_iY"
        }
      ],
      "services": {
        "analytics_service": {
          "status": 1
        },
        "appinvite_service": {
          "status": 1,
          "other_platform_oauth_client": []
        },
        "ads_service": {
          "status": 2
        }
      }
    }
  ],
  "configuration_version": "1"
}